{
  "images" : [
    {
      "idiom" : "universal",
      "filename" : "coorg-institute-of-technology-cit-kodagu-2.jpg",
      "scale" : "1x"
    },
    {
      "idiom" : "universal",
      "filename" : "coorg-institute-of-technology-cit-kodagu-1.jpg",
      "scale" : "2x"
    },
    {
      "idiom" : "universal",
      "filename" : "coorg-institute-of-technology-cit-kodagu.jpg",
      "scale" : "3x"
    }
  ],
  "info" : {
    "version" : 1,
    "author" : "xcode"
  }
}